""""""""""""""""""""""""""""""""""""""""""""""""""""""""""""""""""""""""""""""""""""""""""""""""""""""""""""""""""""""""""""""""""""""""""""""""""""""..
".................................................................%%%%%...............%%%%%.........................................................."~~3::5::6::1.03
".................................................................%%%%%...............%%%%%.........................................................."..
"............++...............................>.+...s.............%%%%%.....G.........%%%%%.........................................................."..
"...........""""""""""}......................%%%%%%%%%}.i.........%%%%%..%.%.%c%c.....%%%%%.................................&...........++++........."..
"....m.!..m...............>..................%%%%%%%%%..".c.......%%%%%..%%%%%%%%.....%%%%%................................{%%%%%%%%%%%%%%%%..c......"..
"....%%%%%%............{"""""".............""%%%%%%%%%....".i.....%%%%%..%%.%%%.%.....%%%%%.............................."..%%%%%%%%%%%%%%%%.."......"..
"....%%%%%%.................................................".....%%%%%..%%%%%%%%.....%%%%%............................g...{%%%%%%%%%%%%%%%%.....c..."..
"......w.w...............................""...................c...%%%%%..%%%...%%}....%%%%%..........c................."....%%cccc...ccc........."..."..
"............................................................."..i%%%%%..%%%...%%.c.....%%%..........".....................{%%cccc+++ccc............."..
"..........&........................""..........................."%%%%%.%%%%%%%%%%%.....%%%..........c..............."......%%cccc+++ccc.......c....."..
".........{"""""""""""""..........................................%%%%%.................%%%..........".....................{%%%%%%%%%%%c......."....."..
"...............................................................c.%%%%%................c%%%..+.......c......".....".........%%%%%%%%%%%c.....c......."..
"........................."""""................................."...................c"""""".."""""""""""""..................%%%%%%%%%%%cc...."......."..
".................................................................................c."....."c.".................%%...........%%ccccccccccc.c.........."..
"................................."""".........................i............cc...."......."..".................%%...........%%ccccccccccc.".........."..
"..............................................................".......cc...""............".c"................%%%...........%%ccccccccccc............"..
"......................................................................""........"........".."................%%%+..........%%%%%%%%%%%%%............"..
"...........................................+.................c.....cc...................."c."..............""""""""".......%%%%%%%%%%%%%............"..
"0........................................""""................".....""........."......c...".."..............................%%%%%%%%%%%%%............"..
"...........................................................i.............c...........ciii".c"......................................................."..
"..............>............................................".............""..........c.>.".."...+..................................................."..
"....c.c.c....%%%%%%%%%%..................................c......................."..."""""c."..."""""""""..........................................."..
".............%%%%%%%%%%..ii.ii.ii.+...................i.."...........c...................".."......................................................."..
".............%%%........%%%%%%%%%%%%..........{""""..."..............""......"...........".c"......................................................."..
"%%%%%%%%%%%%%%%%.......c%%%%%%%%%%%%....................................................{".."......................+................................"..
"%%%%%%%%%%%%%%%%........................................................cc........c......"c.".............."""""""""................................"..
"..w....................c..........................................c....."".......""......".."......................................................."..
".........................................{""""...................."......................".c"......................................................."..
".......................c......................................................"......j.j.".."...+..................................................."..
"....................................................................."..............""""""c."..."""""""""..........................................."..
".......................c..................+..............................................".."......................................................."..
"........................................""""..............................""...c.........".c"......................................................."..
".......................c........................................cc.............".........".."........>.............................................."..
".....................................cc.........................""......................."c."...%%%%%%%%%%%%%%%%%%%%................................"..
"cccc...................c............""""...........................c.."..................".."...%%%%%%%%%%%%%%%%%%%%......."........................"..
"................................cc................................."............cc.......".c"...%%%%%%%%%%%%%%%%%%%%."""".."........................"..
"++ii...................c....j..""""......................................."..".."".......".."...%%%%%%%%%%%%%%%%%%%%......."."......................"..
"cccc.{%%%L....%%%%%%%%%%%%%%%%..........................................................."c."...%%%%%%%%%%%%%%%%%%%%........."...c...c............1."..
"cccc..%%%%%%%%%%%%%%%%%%%%%%%%...................................."...cc...................."...%%%%%%%%%%%%%%%%%%%%........."."%%%%................"..
"""""..%%%%%%%%%%%%%%%%%%%%%%%%........................................""...................c"...%%%%%%%%%%%%%%%%%%%%..........."%%%%................"..
"............................................................................................"...%%%%%%%%%%%%%%%%%%%%..........."%%%%...c..c........."..
"............................................................................................"...%%%%%%%%%%%%%%%%%%%%............%%%%..%%%%%%..+....."..
"......................................................................%%%%%%%%%%.....""""""""...%%%%%%%%%%%%%%%%%%%%........j...%%%%..%%%%%%..+....."..
"......................................................................%%%%%%%%%%................%%%%%%%%%%%%%%%%%%%%........".j.......%%%%%%..%%%%%%"..
"......................................................................%%%%%%%%%%................%%%%%%%%%%%%%%%%%%%%.........."...............%%%%%%"..
"......................................................................%%%%%%%%%%................%%%%%%%%%%%%%%%%%%%%..........................%%%%%%"..
"......................................................................%%%%%%%%%%................%%%%%%%%%%%%%%%%%%%%................................"..
"x....x....x....x....x....x....x....x....x....x....x....x....x....x....x....x....x....x....x....x....x....x....x....x....x....x....x....x....x...x..."..
""""""""""""""""""""""""""""""""""""""""""""""""""""""""""""""""""""""""""""""""""""""""""""""""""""""""""""""""""""""""""""""""""""""""""""""""""""""..
