________________________________________________________________________
_......................................................................_~~2::6::5::0.95
_......................................................................_
_......................................................................_
_......................................................................_
_......................................................................_
_""""""""""""""........................................................_
_"""""""""""""}.....%.................................................._
_""""""""""""""........................................................_
_..w..................................................................._
_.....0...............................................i................_
_.....................................................cc..............._
_.....................................................""..............._
_..................i...............................................isi._
_..................cc.............................................."""._
_..................""............................."...................._
_...........................................i...............""........._
_...........................................cc........................._
_...........................................""........................._
_.!..................."................................................_
_""""""""""""""...........i........"".................................._
_"""""""""""""}...........cc..........................................._
_""""""""""""""...........""..........................................._
_"""""""""""""........................................................._
_""""""""""""""........................................................_
_.w....w...w.."""......................................................_
_............."........................................................_
_............."........................................................_
_............."....&....$.........$...........&....................>..._
_............."""""""""""""""""""""""""""""""""""""""""""""""""""""""""_
_......................................................................_
_......................................................................_
_.............................1........................................_
_......................................................................_
_..........................."""".c....................................._
_......................................................................_
_................................c....................................._
_......................................................................_
_................................c....................................._
_......................................................................_
_................................c....................................._
_.+.+..>...............................c..c..c..c..c..c..c............._
_""""""""""""""""""""""""""""""""""""""""""""""""""""""""".c..........._
_......................................................................_
_...........................................................c.........._
_......................................................................_
_...........................................................c.........._
_......................................................................_
_...........................................................c.........._
_......................................................................_
_...........................................................c.........._
_......................................................................_
_.................................................c.c..c.c..c.........._
_.............................................................>........_
_................................................c...""""""""""""""""""_
_......................................................................_
_......................................................................_
_................................................c....................._
_......................................................................_
_......................................................................_
_................................................c....................._
_......................................................................_
_......................................................................_
_.......c........................................c....................._
_...2.......c.........................................................._
_......................................................................_
_..""".........c.................................c....................._
_......................................................................_
_.................c...................................................._
_................................................c....................._
_.....................................................................{_
_......................................................................_
_............c...."""............................c....................._
_.........c............................................................_
_......................................................................_
_................................................c....................._
_.......c.............................................................._
_......................................................................_
_................................................c....................._
_......c..............................................................._
_......................................................................_
_................................................c....................._
_......c..............................................................{_
_..........c..........................................................._
_............c...................................c....................._
_.....""".............................................................._
_.............c........................................................_
_................................................c....................._
_......................................................................_
_.............c........................................................_
_................................................c....................._
_......................................................................_
_.............c........................................................_
_................................................c....................._
_"..&..>...."..".&.......>.&..."......................................{_
_"""""""""""".."""""""""""""""""......................................._
_................................................c....................._
_......................................................................_
_......................................................................_
_................................................c....................._
_......................................................................_
_......................................................................_
_................................................c....................._
_............""........................................................_
_......................................................................_
_................................................c....................._
_...................c.................................................._
_......................................................................_
_..x.............................................c....................._
_..%%%%%..............................................................._
_......................................................................_
_................................................c....................._
_......................................................................_
_......................................................................_
_................................................c....................._
_......................x..............................................._
_......................%%%%%..........................................._
_...................c............................c....................._
_...........x.........................................................._
_...........%%%%%......................................................_
_................................................c....................._
_......................................................................_
_......................................................................_
_...........................................>....c....>................_
_.........................................."".........""..............._
_......................................"..............................._
_......................................".........c....................._
_......................................"..............................._
_...................c.................."..............................._
_......x...............................".........c....................._
_......%%%%%..........................."..............................._
_......................................"..............................._
_........................x.............".........c....................._
_........................%%%%%........."..............................._
_......................................"..............................._
_......................................".........c....................._
_......................................"..............................._
_......................................"..............................._
_...................c..................".........c....................._
_......................................"..............................._
_......................................"..............................._
_......................................".........c....................._
_......................................"..............................._
_....................c................."..............................._
_..................>...................".........c....................._
_.................""""................."..............................._
_......................................"..............................._
_.........................x............"....>....c....>................_
_......c.....c............%%%%%........"..."".........""..............._
_......".i.i."........................."..............................._
_......""""""".........................".........c....................._
_......................................"..............................._
_..............c.....c................."..............................._
_..............".....".................".........c....................._
_.............."""""""................."..............................._
_......................................"..............................._
_......................................".........c....................._
_....c.....c..........................."..............................._
_...."x...."..........................."..............................._
_...."%%%%%"...........................".........c....................._
_..............c.....c................."..............................._
_.............."..i.."................."..............................._
_..............""""""".................".........c....................._
_......................................"..............................._
_......................x..............."..............................._
_......................%%%%%...........".........c....................._
_......................................"..............................._
_......................................"..............................._
_...c.....c............................".........c....................._
_..."..+.."............................"..............................._
_..."""""""............................"..............................._
_......................................"..............................._
_......................................"..........c...................._
_x..............................m......"..............................._
_%%%%%.........................."......"..............................._
_...................x..........."......"............c.................._
_...................%%%%%......."......"..............................._
_..............................."......w...............c..............._
_..............................."......................................_
_...............................".........................c......+....._
_....c.....c...................."..............................."""...._
_...."x...."...................."................................."...._
_...."%%%%%"...................."................................."...._
_...............................".........c.c..........&........@."...._
_...............................".......c.""""""...""""""""""""""""...._
_..............................."..............".+......".............._
_..................c.....c......"..............".+......".............._
_.................."....."......".......c......".......i".............._
_.................."""""""......"......."......"""""""""".............._
_..............................."......................................_
_..............................."......................................_
_....c.....c....................".........c............................_
_...."i.+.i"...................."........."............................_
_...."""""""...................."......................................_
_.................x............."......................................_
_.................%%%%%.........".......c.............................._
_x..............................".......".............................._
_%%%%%..........................".....................................{_
_..............................."......................................_
_..............................."......................................_
_...............................".........i............................_
_..............................."........."............................_
_....c.....c...................."......................................_
_...."..+.."...................."......................................_
_...."""""""...c.....c..........".......c.............................._
_.............."x...."..........".......".............................._
_.............."%%%%%".........."......................................_
_..............................."......................................_
_...............................".........c............................_
_..............................."........."............................_
_..............................."......................................_
_c.....c........................"......................................_
_"..+.."........................"......................................_
_""""""".......x................".......c.............................._
_..............%%%%%............".......".............................._
_..............................."......................................_
_..............................."......................................_
_...............................".....................................{_
_......................x........".........c............................_
_......................%%%%%...."........."............................_
_..............................."......................................_
_..............................."......................................_
_...c.....c....................."......................................_
_..."x....".....................".......i.............................._
_..."%%%%%".....................".......".............................._
_..............x................"......................................_
_..............%%%%%............"......................................_
_..............................."......................................_
_...............................".........c............................_
_..............................."........."............................_
_..............................."......................................_
_..............................."......................................_
_..............................."......................................_
_...............................".......c.............................{_
_..c.....c......................".......".............................._
_.."....."......................"......................................_
_.."""""""......................"......................................_
_.................x............."......................................_
_.................%%%%%........."........b............................._
_..............................."......."""............................_
_..............................."......................................_
_..............................."......................................_
_..............................."......................................_
_..x............................"......................................_
_..%%%%%........................"......................................_
_..............................."......................................_
_..............................."......................................_
_..............................."......................................_
_.................c.....c......."......................................_
_................."x...."......."......................................_
_................."%%%%%"......."......................................_
_..............................."......................................_
_..............................."......................................_
_..............................."......................................_
_..............................."......................................_
_..............................."......................................_
_..............................."......................................_
_..............................."......................................_
_..............................."......................................_
_..............................."......................................_
_........c.....c................"......................................_
_........"....."................"......................................_
_........"""""""................"......................................_
_..............................."......................................"
_..............................."......................................_
_..................ii..........."......................................_
_..................""..........."......................................_
_..............................."......................................_
_..............................."......................................_
_..............................."......................................_
_.........................ii...."......................................_
_.........................""...."......................................_
_..............................."......................................_
_..............................."......................................_
_..............................."......................................_
_..............................."x....x....x....x....x....x....x....x.._
_............................."""%%%%%%%%%%%%%%%%%%%%%%%%%%%%%%%%%%%%%%%
_......................................................................_
_......................................................................_
_......................................................................_
_x....x....x....x......................................................_
_%%%%%%%%%%%%%%%%%%%%.................................................._
_.........................""..........................................._
_....................................cc................................_
_....................................""................................_
_......................................................................_
_..............................ii......................................_
_..............................""......................................_
_......................................................................_
_......................................................................_
_......................................................................_
_......g....................+.......................................G.._
_......"}...&.........&....."............+........................""""""
_......""""""""""""""""""""""............"...&...........&...{"..."""""_
_........................................""""""""""""""""""""""..."""""_
_................................................................."""""_
_................................................................."""""_
_................................................................."""""_
_................................................................."""""_
_................................................................."""""_
_................................................................."""""_
_x....x....x....x....x....x....x....x....x....x....x....x....x....x...._
________________________________________________________________________
